{
  "mongoURI": "mongodb+srv://trivenk:genshin1234@socialreseau.wxzhi.mongodb.net/<dbname>?retryWrites=true&w=majority",
  "jwtSecret": "mysecrettoken",
  "githubToken": " 68cf5d8d65e01d9c486bece9647301183b4c7e38"
}
